{
  "type": "forge:ore_shaped",
  "result": {
    "item": "automatuum:harsh_refining_sieve",
    "count": 1,
    "data": 0
  },
  "pattern": [
    "SSS",
    "SSS",
    "SSS"
  ],
  "key": {
    "S": {
      "type": "forge:ore_dict",
      "ore": "string"
    }
  }
}