{
  "type": "forge:ore_shaped",
  "result": {
    "item": "automatuum:diamond_barrel",
    "count": 1,
    "data": 0
  },
  "pattern": [
    "W W",
    "W W",
    "WSW"
  ],
  "key": {
    "W": {
      "type": "forge:ore_dict",
      "ore": "blockDiamond"
    },
    "S": {
      "item": "automatuum:metal_slab",
      "count": 1,
      "data": 2
    }
  }
}