{
  "forge_marker": 1,
  "defaults": {
    "textures": {
      "all": "minecraft:blocks/iron_block"
    },
    "model": "automatuum:iron_barrel",
    "uvlock": "true"
  },
  "variants": {
    "normal": [{}],
    "inventory": [{}]
  }
}