{
  "forge_marker": 1,
  "defaults": {
    "textures": {
      "all": "automatuum:blocks/toparite_cable"
    },
    "model": "automatuum:toparite_cable_center",
    "uvlock": true
  },
  "variants": {
    "up": {
      "true": {
        "submodel": {
          "cUp": {
            "model": "automatuum:toparite_cable_connection",
            "x": 270
          }
        }
      },
      "false": {
      }
    },
    "down": {
      "true": {
        "submodel": {
          "cDown": {
            "model": "automatuum:toparite_cable_connection",
            "x": 90
          }
        }
      },
      "false": {
      }
    },
    "north": {
      "true": {
        "submodel": {
          "cNorth": {
            "model": "automatuum:toparite_cable_connection"
          }
        }
      },
      "false": {
      }
    },
    "east": {
      "true": {
        "submodel": {
          "cEast": {
            "model": "automatuum:toparite_cable_connection",
            "y": 90
          }
        }
      },
      "false": {
      }
    },
    "south": {
      "true": {
        "submodel": {
          "cSouth": {
            "model": "automatuum:toparite_cable_connection",
            "y": 180
          }
        }
      },
      "false": {
      }
    },
    "west": {
      "true": {
        "submodel": {
          "cWest": {
            "model": "automatuum:toparite_cable_connection",
            "y": 270
          }
        }
      },
      "false": {
      }
    },
    "normal": [{}],
    "inventory": [
      {
        "model": "forge:item-layer",
        "transform": "forge:default-item",
        "textures": {
          "layer0": "automatuum:items/toparite_cable"
        }
      }
    ]
  }
}