{
  "parent": "block/block",
  "textures": {
    "0": "#all",
    "particle": "minecraft:blocks/gold_block"
  },
  "elements": [
    {
      "name": "cube",
      "from": [0, 0, 0],
      "to": [16, 8, 16],
      "faces": {
        "north": {"uv": [0, 0, 16, 16], "texture": "#0"},
        "east": {"uv": [0, 0, 16, 16], "texture": "#0"},
        "south": {"uv": [0, 0, 16, 16], "texture": "#0"},
        "west": {"uv": [0, 0, 16, 16], "texture": "#0"},
        "up": {"uv": [0, 0, 16, 16], "texture": "#0"},
        "down": {"uv": [0, 0, 16, 16], "texture": "#0"}
      },
      "type": "cube"
    }
  ]
}